Exam_final_mod6
…
Con los p-valores en el gráfico, realizada con la Prueba Post Hoc de Games-Howell, nos representa que el promedio del grupo Banting es significativamente diferente con con todas los otros factores, ya que el p-valor con todos ellos son menor a 0.05 (p-valor < 0.05), por otra parte, El grupo Kemaya y Sabak Bernam, son otros dos grupos que presentan una diferencia significativa en sus promedios.

Este es mi base de Datos

Este viene a ser mi base de datos

Code

library(readxl)
Base_datos <- read_excel("bases/Data-JAPPL-2023-00856.xlsx")

Base_datos 

# A tibble: 180 × 22
   Site    Management   Point Month    Year `Crown damage` `Frond damage`
   <chr>   <chr>        <dbl> <chr>   <dbl>          <dbl>          <dbl>
 1 Banting Smallholding     1 January  2014           5.25          13.3 
 2 Banting Smallholding     2 January  2014           5.29          11.2 
 3 Banting Smallholding     3 January  2014           1.58          22.5 
 4 Banting Smallholding     4 January  2014           4.92           6.13
 5 Banting Smallholding     5 January  2014           2.04           2.38
 6 Banting Smallholding     6 January  2014           2.75           7.17
 7 Banting Smallholding     7 January  2014           2.58           1.5 
 8 Banting Smallholding     8 January  2014           5.25          22.7 
 9 Banting Smallholding     9 January  2014           1              5.2 
10 Banting Smallholding    10 January  2014           3.5            5   
# ℹ 170 more rows
# ℹ 15 more variables: `Oil palm height` <dbl>, `Grass cover` <dbl>,
#   `Shrub cover` <dbl>, `Dried biomass` <dbl>, `Epiphyte cover` <dbl>,
#   `Canopy cover` <dbl>, `Distance to forest patch` <dbl>,
#   `Distance to continuous forest` <dbl>, Elevation <dbl>,
#   `Bird richness (overall)` <dbl>, `Bird abundance (overall)` <dbl>,
#   `Bird richness (insectivore)` <dbl>, …
